<svg xmlns="http://www.w3.org/2000/svg" viewBox="-747.439 -1158 868.439 109.098">
  <defs>
    <style>
      .cls-1 {
        fill: #bdbdbd;
      }

      .cls-2 {
        fill: #e0e0e0;
      }

      .cls-3 {
        fill: #11998e;
      }

      .cls-4, .cls-5 {
        fill: #38ef7d;
      }

      .cls-4 {
        opacity: 0.4;
      }

      .cls-6 {
        fill: #fafbfb;
      }
    </style>
  </defs>
  <g id="Group_830" data-name="Group 830" transform="translate(-747.463 -1158)">
    <path id="Path_789" data-name="Path 789" class="cls-1" d="M863.1,35.1H5.342a5.171,5.171,0,1,0,0,10.336H863.1a5.235,5.235,0,0,0,5.341-5.168A5.431,5.431,0,0,0,863.1,35.1Z" transform="translate(0.024 15.286)"/>
    <rect id="Rectangle_625" data-name="Rectangle 625" class="cls-2" width="800.788" height="10.049" transform="translate(32.663 20.241)"/>
    <path id="Rectangle_626" data-name="Rectangle 626" class="cls-2" d="M10,0H790.788a10,10,0,0,1,10,10v.049a0,0,0,0,1,0,0H0a0,0,0,0,1,0,0V10A10,10,0,0,1,10,0Z" transform="translate(32.663)"/>
    <rect id="Rectangle_627" data-name="Rectangle 627" class="cls-3" width="800.788" height="10.049" transform="translate(32.663 10.049)"/>
    <rect id="Rectangle_628" data-name="Rectangle 628" class="cls-4" width="800.788" height="5.024" transform="translate(32.663 10.049)"/>
    <path id="Path_790" data-name="Path 790" class="cls-3" d="M533.8,35.1V62.375c0,17.37,14.541,31.438,32.494,31.438h0c17.953,0,32.494-14.068,32.494-31.438V35.1Z" transform="translate(258.25 15.286)"/>
    <path id="Path_791" data-name="Path 791" class="cls-2" d="M490,35.1V62.375c0,17.37,14.541,31.438,32.494,31.438h0c17.953,0,32.494-14.068,32.494-31.438V35.1Z" transform="translate(237.062 15.286)"/>
    <path id="Path_792" data-name="Path 792" class="cls-3" d="M446.1,35.1V62.375c0,17.37,14.541,31.438,32.494,31.438h0c17.953,0,32.494-14.068,32.494-31.438V35.1Z" transform="translate(215.825 15.286)"/>
    <path id="Path_793" data-name="Path 793" class="cls-2" d="M402.2,35.1V62.375c0,17.37,14.541,31.438,32.494,31.438h0c17.953,0,32.494-14.068,32.494-31.438V35.1Z" transform="translate(194.589 15.286)"/>
    <path id="Path_794" data-name="Path 794" class="cls-3" d="M358.4,35.1V62.375c0,17.37,14.541,31.438,32.494,31.438h0c17.953,0,32.494-14.068,32.494-31.438V35.1Z" transform="translate(173.4 15.286)"/>
    <path id="Path_795" data-name="Path 795" class="cls-2" d="M314.5,35.1V62.375c0,17.37,14.541,31.438,32.494,31.438h0c17.953,0,32.494-14.068,32.494-31.438V35.1Z" transform="translate(152.164 15.286)"/>
    <path id="Path_796" data-name="Path 796" class="cls-3" d="M270.7,35.1V62.375c0,17.37,14.541,31.438,32.494,31.438h0c17.953,0,32.494-14.068,32.494-31.438V35.1Z" transform="translate(130.975 15.286)"/>
    <path id="Path_797" data-name="Path 797" class="cls-2" d="M226.8,35.1V62.375c0,17.37,14.541,31.438,32.494,31.438h0c17.953,0,32.494-14.068,32.494-31.438V35.1Z" transform="translate(109.739 15.286)"/>
    <path id="Path_798" data-name="Path 798" class="cls-3" d="M183,35.1V62.375c0,17.37,14.541,31.438,32.494,31.438h0c17.953,0,32.494-14.068,32.494-31.438V35.1Z" transform="translate(88.551 15.286)"/>
    <path id="Path_799" data-name="Path 799" class="cls-2" d="M139.1,35.1V62.375c0,17.37,14.541,31.438,32.494,31.438h0c17.953,0,32.494-14.068,32.494-31.438V35.1Z" transform="translate(67.314 15.286)"/>
    <path id="Path_800" data-name="Path 800" class="cls-3" d="M95.3,35.1V62.375c0,17.37,14.541,31.438,32.494,31.438h0c17.953,0,32.494-14.068,32.494-31.438V35.1Z" transform="translate(46.126 15.286)"/>
    <path id="Path_801" data-name="Path 801" class="cls-2" d="M51.4,35.1V62.375c0,17.37,14.541,31.438,32.494,31.438h0c17.953,0,32.494-14.068,32.494-31.438V35.1Z" transform="translate(24.889 15.286)"/>
    <path id="Path_802" data-name="Path 802" class="cls-3" d="M7.6,35.1V62.375c0,17.37,14.541,31.438,32.494,31.438h0c17.953,0,32.494-14.068,32.494-31.438V35.1Z" transform="translate(3.701 15.286)"/>
    <path id="Path_803" data-name="Path 803" class="cls-5" d="M90.987,21.1l-18.4,20.1H7.6L29.114,21.1" transform="translate(3.701 9.189)"/>
    <path id="Path_804" data-name="Path 804" class="cls-6" d="M131.523,21.1,116.537,41.2H51.4L69.8,21.1" transform="translate(24.889 9.189)"/>
    <path id="Path_805" data-name="Path 805" class="cls-5" d="M172.01,21.1,160.288,41.2H95.3l14.986-20.1" transform="translate(46.126 9.189)"/>
    <path id="Path_806" data-name="Path 806" class="cls-6" d="M212.546,21.1l-8.309,20.1H139.1l11.722-20.1" transform="translate(67.314 9.189)"/>
    <path id="Path_807" data-name="Path 807" class="cls-5" d="M253.033,21.1l-5.045,20.1H183l8.309-20.1" transform="translate(88.551 9.189)"/>
    <path id="Path_808" data-name="Path 808" class="cls-6" d="M293.569,21.1l-1.632,20.1H226.8l5.045-20.1" transform="translate(109.739 9.189)"/>
    <path id="Path_809" data-name="Path 809" class="cls-5" d="M334.056,21.1l1.632,20.1H270.7l1.632-20.1" transform="translate(130.975 9.189)"/>
    <path id="Path_810" data-name="Path 810" class="cls-6" d="M375.124,21.1l5.045,20.1H315.032L313.4,21.1" transform="translate(151.632 9.189)"/>
    <path id="Path_811" data-name="Path 811" class="cls-5" d="M416.724,21.1l8.309,20.1H360.045L355,21.1" transform="translate(171.756 9.189)"/>
    <path id="Path_812" data-name="Path 812" class="cls-6" d="M458.324,21.1l11.722,20.1H404.909L396.6,21.1" transform="translate(191.88 9.189)"/>
    <path id="Path_813" data-name="Path 813" class="cls-5" d="M500.072,21.1l14.986,20.1H449.922L438.2,21.1" transform="translate(212.004 9.189)"/>
    <path id="Path_814" data-name="Path 814" class="cls-6" d="M541.624,21.1l18.25,20.1H494.886L479.9,21.1" transform="translate(232.176 9.189)"/>
    <path id="Path_815" data-name="Path 815" class="cls-5" d="M583.224,21.1l21.663,20.1H539.75L521.5,21.1" transform="translate(252.3 9.189)"/>
  </g>
</svg>
