<svg xmlns="http://www.w3.org/2000/svg" viewBox="3396.9 -3897 107.4 107.4">
  <defs>
    <style>
      .cls-1 {
        fill: #f0f0f0;
      }

      .cls-1, .cls-2 {
        stroke: #f5f5f5;
        stroke-width: 4px;
        fill-rule: evenodd;
      }

      .cls-2 {
        fill: #f5f5f5;
      }
    </style>
  </defs>
  <g id="noun_227375_cc" transform="translate(3355.4 -3938.5)">
    <g id="Group_723" data-name="Group 723" transform="translate(43.5 43.5)">
      <g id="Group_722" data-name="Group 722">
        <path id="Path_747" data-name="Path 747" class="cls-1" d="M146.9,95.2a51.7,51.7,0,1,0-51.7,51.7A51.7,51.7,0,0,0,146.9,95.2Zm-100.145,0A48.445,48.445,0,1,1,95.2,143.645,48.445,48.445,0,0,1,46.755,95.2Z" transform="translate(-43.5 -43.5)"/>
        <path id="Path_748" data-name="Path 748" class="cls-2" d="M201.991,201.785a1.627,1.627,0,0,0,2.58,1.319l30.609-22.121a1.627,1.627,0,0,0-.023-2.654l-30.609-21.338a1.627,1.627,0,0,0-2.558,1.335ZM231.537,179.6l-26.292,18.991V161.355Z" transform="translate(-162.311 -128.356)"/>
      </g>
    </g>
  </g>
</svg>
